Using nettskjemar
…
# Turns list column, into rows 
ns_get_data(formid) |>
  ns_alter_checkbox(
    to = "list"
  ) |>
  unnest(checkbox_matrix.1) |>
  relocate(checkbox_matrix.1, .after = 2)
#> # A tibble: 5 × 23
#>   `$submission_id` formid checkbox_matrix.1
#>              <int>  <dbl> <chr>            
#> 1         27685292 123823 colleague        
#> 2         27685292 123823 IT               
#> 3         27685302 123823 internet         
#> 4         27685319 123823 colleague        
#> 5         27685319 123823 internet         
#> # ℹ 20 more variables: `$created` <chr>,
#> #   freetext <chr>, radio <int>,
#> #   checkbox.questionnaires <int>,
#> #   checkbox.events <int>, checkbox.logs <int>,
#> #   dropdown <int>, radio_matrix.grants <int>,
#> #   radio_matrix.lecture <int>,
#> #   radio_matrix.email <int>, date <chr>, …

If you are not used to working with list columns, another option is
to work with delimited strings in columns. In this procedure, you can
turn the checkboxes into a character column, where each option in
separated by a character of your choosing.

# As delimited string column
ns_get_data(formid) |>
  ns_alter_checkbox(
    to = "character",
    sep = ";"
  ) |>
  relocate(checkbox_matrix.1, .after = 2)
#>   $submission_id formid checkbox_matrix.1
#> 1       27685292 123823      colleague;IT
#> 2       27685302 123823          internet
#>                    $created       freetext radio
#> 1 2023-06-01T20:57:15+02:00      some text     1
#> 2 2023-06-01T20:58:33+02:00 another answer    -1
#>   checkbox.questionnaires checkbox.events
#> 1                       1               1
#> 2                       0               0
#>   checkbox.logs dropdown radio_matrix.grants
#> 1             0        4                   1
#> 2             1        9                   3
#>   radio_matrix.lecture radio_matrix.email       date
#> 1                    2                  2 2023-06-01
#> 2                    3                  1 2023-02-07
#>    time         datetime number_decimal
#> 1 12:00 2023-06-12T13:33            4.5
#> 2 14:45 2024-02-15T08:55            2.2
#>   number_integer slider attachment_1 attachment_2
#> 1             77      3    sølvi.png             
#> 2             45      1               marius.jpeg
#>   $answer_time_ms checkbox_matrix.2
#> 1           74630             admin
#> 2           71313       admin;union
#>  [ reached 'max' / getOption("max.print") -- omitted 1 rows ]
…
